…
A collection of data-driven tests (&gamma;) are provided for checking the data, which could be weighted (&omega;) and summed to give a single value reporting on reliability. 

### Set up.

	library(devtools)
	# load from GitHub
	install_github('gmiskell/CrossAutoFunctions')
	library(CrossAutoFunctions)

Some example data, `example.RData` has been included for demonstration purposes. 

	load('/example.RData')
	example
	# A tibble: 22,362 x 5
	   date                site        lat   lon   pol
	   <dttm>              <chr>     <dbl> <dbl> <dbl>
	 1 2017-09-10 00:00:00 AQY-AA011 -43.5  173.  6.20
	 2 2017-09-11 00:00:00 AQY-AA011 -43.5  173.  3.19
	 3 2017-09-12 00:00:00 AQY-AA011 -43.5  173.  5.34
	 4 2017-09-13 00:00:00 AQY-AA011 -43.5  173.  5.56
	 5 2017-09-14 00:00:00 AQY-AA011 -43.5  173.  1.53
	 6 2017-09-15 00:00:00 AQY-AA011 -43.5  173.  3.72
	 7 2017-09-16 00:00:00 AQY-AA011 -43.5  173.  3.09
	 8 2017-09-17 00:00:00 AQY-AA011 -43.5  173.  4.28
	 9 2017-09-18 00:00:00 AQY-AA011 -43.5  173.  5.31
	10 2017-09-19 00:00:00 AQY-AA011 -43.5  173.  3.98
	# ... with 22,352 more rows
…
